{
    "nome": "Griglia blocchi 4 pi\u00f9 4",
    "duplicabile": true,
    "backEnd": {
        "class": null,
        "method": ""
    },
    "config": [
        {
            "type": "mediumText",
            "multilang": true,
            "var": "testo1",
            "label": "Testo primo riquadro",
            "mandatory": false,
            "help": "",
            "default": ""
        },
        {
            "type": "mediumText",
            "multilang": true,
            "var": "testo2",
            "label": "Testo secondo riquadro",
            "mandatory": false,
            "help": "",
            "default": ""
        },
        {
            "type": "mediumText",
            "multilang": true,
            "var": "testo3",
            "label": "Testo terzo riquadro",
            "mandatory": false,
            "help": "",
            "default": ""
        },
        {
            "type": "mediumText",
            "multilang": true,
            "var": "testo4",
            "label": "Testo quarto riquadro",
            "mandatory": false,
            "help": "",
            "default": ""
        },
        {
            "type": "link",
            "multilang": true,
            "var": "link1",
            "label": "Link primo riquadro",
            "mandatory": false,
            "help": "",
            "default": ""
        },
        {
            "type": "link",
            "multilang": true,
            "var": "link2",
            "label": "Link secondo riquadro",
            "mandatory": false,
            "help": "",
            "default": ""
        },
        {
            "type": "link",
            "multilang": true,
            "var": "link3",
            "label": "Link terzo riquadro",
            "mandatory": false,
            "help": "",
            "default": ""
        },
        {
            "type": "link",
            "multilang": true,
            "var": "link4",
            "label": "Link quarto riquadro",
            "mandatory": false,
            "help": "",
            "default": ""
        },
        {
            "type": "image",
            "multilang": false,
            "var": "icon1",
            "label": "Icona primo riquadro",
            "mandatory": false,
            "help": "",
            "default": "",
            "types": [
                "jpg",
                "png",
                "gif",
                "jpeg"
            ],
            "dimensioni": "300x200"
        },
        {
            "type": "image",
            "multilang": false,
            "var": "icon2",
            "label": "Icona secondo riquadro",
            "mandatory": false,
            "help": "",
            "default": "",
            "types": [
                "jpg",
                "png",
                "gif",
                "jpeg"
            ],
            "dimensioni": "300x200"
        },
        {
            "type": "image",
            "multilang": false,
            "var": "icon3",
            "label": "Icona terzo riquadro",
            "mandatory": false,
            "help": "",
            "default": "",
            "types": [
                "jpg",
                "png",
                "gif",
                "jpeg"
            ],
            "dimensioni": "300x200"
        },
        {
            "type": "image",
            "multilang": false,
            "var": "icon4",
            "label": "Icona quarto riquadro",
            "mandatory": false,
            "help": "",
            "default": "",
            "types": [
                "jpg",
                "png",
                "gif",
                "jpeg"
            ],
            "dimensioni": "300x200"
        },
        {
            "type": "image",
            "multilang": false,
            "var": "img1",
            "label": "Immagine primo riquadro alternato",
            "mandatory": false,
            "help": "",
            "default": "",
            "types": [
                "jpg",
                "png",
                "gif",
                "jpeg"
            ],
            "dimensioni": "300x200"
        },
        {
            "type": "image",
            "multilang": false,
            "var": "img2",
            "label": "Immagine secondo riquadro alternato",
            "mandatory": false,
            "help": "",
            "default": "",
            "types": [
                "jpg",
                "png",
                "gif",
                "jpeg"
            ],
            "dimensioni": "300x200"
        },
        {
            "type": "image",
            "multilang": false,
            "var": "img3",
            "label": "Immagine terzo riquadro alternato",
            "mandatory": false,
            "help": "",
            "default": "",
            "types": [
                "jpg",
                "png",
                "gif",
                "jpeg"
            ],
            "dimensioni": "300x200"
        },
        {
            "type": "image",
            "multilang": false,
            "var": "img4",
            "label": "Immagine quarto riquadro alternato",
            "mandatory": false,
            "help": "",
            "default": "",
            "types": [
                "jpg",
                "png",
                "gif",
                "jpeg"
            ],
            "dimensioni": "300x200"
        }
    ]
}