{
    "codice": "BDBI.1.0.0",
    "release": "1.0",
    "releaseDate": "2017-02-14",
    "nome": "Box Doppio Invertito con Bottone Link",
    "duplicabile": true,
    "descrizione": "Come Box Doppio Bottone, ad eccezione dei contenuti che sono scambiati di posizione",
    "author": "Matteo",
    "backEnd": {
        "class": "",
        "method": ""
    },
    "assets": {
        "css": [
            "/node_modules/aos/dist/aos.css"
        ],
        "js": [
            "/public/lib/modernizr-custom.js",
            "/public/lib/objectfit-correction.js",
            "/node_modules/aos/dist/aos.js"
        ]
    },
    "config": [
        {
            "var": "immagine",
            "label": "Immagine di Sfondo",
            "type": "image",
            "types": [
                "jpg",
                "png",
                "gif",
                "jpeg"
            ],
            "dimensioni": "1200x1000",
            "mandatory": true,
            "multilang": false
        },
        {
            "var": "link",
            "label": "Link Bottone",
            "type": "link",
            "default": "",
            "multilang": true,
            "mandatory": true
        },
        {
            "var": "titoletto",
            "label": "Titoletto",
            "type": "simpleText",
            "default": "",
            "multilang": true,
            "mandatory": false
        },
        {
            "var": "titolo",
            "label": "Titolo",
            "type": "mediumText",
            "default": "",
            "multilang": true,
            "mandatory": true
        }
    ]
}
