{
    "codice": "BTI.1.0.0",
    "release": "1.0",
    "releaseDate": "2017-03-23",
    "descrizione": "Riga a 3 blocchi di cui una grande e 2 piccole",
    "author": "Giovanni Lenoci",
    "css": [
        "/node_modules/aos/dist/aos.css"
    ],
    "js": [
        "/node_modules/aos/dist/aos.js",
        "/node_modules/jquery-match-height/dist/jquery.matchHeight-min.js",
        "/public/lib/modernizr-custom.js"
    ]
}