{
    "codice": "PRP.1.0.0",
    "release": "1.0",
    "releaseDate": "2017-03-30",
    "descrizione": "Estrae la prima pagina genitore",
    "author": "Giovanni Lenoci",
    "assets": {
        "js": [
            "/node_modules/jquery-match-height/dist/jquery.matchHeight-min.js"
        ],
        "css": []
    }
}