{
    "codice": "FC.2.0.0",
    "release": "1.0",
    "releaseDate": "2017-03-18",
    "descrizione": "Form contatti Gema System",
    "author": "Gabriele 'gabricom' Colombera",
    "assets": {
        "css": [
            "/public/lib/pretty-checkbox/src/pretty.min.css",
            "/public/lib/font-awesome/css/font-awesome.min.css"
        ],
        "js": [
            "/node_modules/jquery-form/dist/jquery.form.min.js"
        ]
    }
}