{
    "codice": "BSL.1.0.0",
    "release": "1.0",
    "releaseDate": "2017-02-16",
    "nome": "Box Sei Loghi",
    "duplicabile": true,
    "descrizione": "Box con un breve testo e spazio per 6 loghi",
    "author": "Matteo",
    "backEnd": {
        "class": "",
        "method": ""
    },
    "config": [
        {
            "var": "testo",
            "label": "Testo",
            "type": "simpleText",
            "default": "",
            "multilang": true,
            "mandatory": true
        },
        {
            "var": "logo1",
            "label": "Logo 1",
            "type": "image",
            "types": [
                "jpg",
                "png",
                "gif",
                "jpeg"
            ],
            "dimensioni": "200x100",
            "mandatory": true,
            "multilang": false
        },
        {
            "var": "logo2",
            "label": "Logo 2",
            "type": "image",
            "types": [
                "jpg",
                "png",
                "gif",
                "jpeg"
            ],
            "dimensioni": "200x100",
            "mandatory": true,
            "multilang": false
        },
        {
            "var": "logo3",
            "label": "Logo 3",
            "type": "image",
            "types": [
                "jpg",
                "png",
                "gif",
                "jpeg"
            ],
            "dimensioni": "200x100",
            "mandatory": true,
            "multilang": false
        },
        {
            "var": "logo4",
            "label": "Logo 4",
            "type": "image",
            "types": [
                "jpg",
                "png",
                "gif",
                "jpeg"
            ],
            "dimensioni": "200x100",
            "mandatory": true,
            "multilang": false
        },
        {
            "var": "logo5",
            "label": "Logo 5",
            "type": "image",
            "types": [
                "jpg",
                "png",
                "gif",
                "jpeg"
            ],
            "dimensioni": "200x100",
            "mandatory": true,
            "multilang": false
        },
        {
            "var": "logo6",
            "label": "Logo 6",
            "type": "image",
            "types": [
                "jpg",
                "png",
                "gif",
                "jpeg"
            ],
            "dimensioni": "200x100",
            "mandatory": true,
            "multilang": false
        }
    ]
}
