{
    "nome": "",
    "duplicabile": true,
    "backEnd": {
        "class": "",
        "method": ""
    },
    "config": [
        {
            "var": "titolo",
            "label": "Titolo",
            "type": "simpleText",
            "default": "",
            "multilang": true,
            "mandatory": true
        },
        {
            "var": "testo",
            "label": "Testo",
            "type": "mediumText",
            "default": "",
            "multilang": true,
            "mandatory": false
        },
        {
            "var": "link_privacy",
            "label": "Link privacy",
            "type": "link",
            "default": "",
            "multilang": false,
            "mandatory": false
        },
        {
            "var": "bg_img",
            "label": "Immagine sfondo",
            "type": "image",
            "dimensioni": "1920x300",
            "types": [
                "png",
                "jpg",
                "gif",
                "jpeg"
            ],
            "multilang": false,
            "mandatory": false
        },
        {
            "var": "img_btn",
            "label": "Immagine pulsante",
            "type": "image",
            "dimensioni": "300x60",
            "types": [
                "png",
                "jpg",
                "gif",
                "jpeg"
            ],
            "multilang": true,
            "mandatory": false
        }
    ]
}