{
    "codice": "FB.1.0.0",
    "release": "1.0",
    "releaseDate": "2017-01-25",
    "descrizione": "Modulo per la creazione di uno slider di opinioni cliente derivante da una categoria di diapositive inserite tramite la gestione vetrina in backoffice",
    "assets": {
        "css": [
            "/node_modules/slick-carousel/slick/slick.css",
            "/node_modules/slick-carousel/slick/slick-theme.css"
        ],
        "js": [
            "/node_modules/slick-carousel/slick/slick.min.js"
        ]
    },
    "config": [
        {
            "var": "category",
            "label": "Nome Categoria",
            "type": "simpleText",
            "multilang": false,
            "mandatory": true
        },
        {
            "var": "titolo",
            "label": "Titolo",
            "type": "simpleText",
            "multilang": true,
            "mandatory": true
        }
    ]
}
