{
    "nome": "Ecommerce  - TreeMenu Sinistra categoria",
    "duplicabile": false,
    "backEnd": {
        "class": "Webtek\\EcommerceBundle\\DataFormatter\\CategoryFormatter",
        "method": "getMenu"
    },
    "config": [],
    "author": "gabricom"
}