{
    "codice": "BTFFA.1.0.0",
    "release": "1.0",
    "releaseDate": "2017-02-15",
    "nome": "Blocchi con testo, foto e flip animation",
    "author": "nicolawebtek",
    "duplicabile": true,
    "descrizione": "Blocchi con testo, foto e flip animation",
    "backEnd": {
        "class": "AppBundle\\DataFormatter\\VetrinaFormatter",
        "method": "getData"
    },
    "assets": {
        "js": [
            "/public/lib/flipAnimation/flipAnimation.js",
            "/node_modules/jquery-match-height/dist/jquery.matchHeight-min.js"
        ]
    },
    "config": [
        {
            "var": "titolo",
            "label": "Titolo",
            "type": "mediumText",
            "default": "",
            "multilang": true,
            "mandatory": true
        },
        {
            "var": "sottotitolo",
            "label": "Sottotitolo",
            "type": "mediumText",
            "default": "",
            "multilang": true,
            "mandatory": true
        },
        {
            "var": "category",
            "label": "Nome Categoria",
            "type": "simpleText",
            "multilang": false,
            "mandatory": true
        }
    ]
}
