{
    "codice": "DROPDOWNMENUINT.1.0.0",
    "release": "1.0",
    "releaseDate": "2017-03-21",
    "duplicabile": true,
    "descrizione": "Modulo per l'estrazione del menu a partire da un livello di appartenenza, menu a più livelli con dropdown, da inserire in una navbar"
}