{
    "nome": "Prova",
    "duplicabile": true,
    "config": [
        {
            "var": "img",
            "label": "Immagine Sfondo",
            "type": "image",
            "dimensioni": "500x500",
            "types": [
                "jpg",
                "png",
                "gif",
                "jpeg"
            ],
            "multilang": false,
            "mandatory": true
        },
        {
            "var": "titolo",
            "label": "Titolo",
            "type": "mediumText",
            "multilang": true,
            "mandatory": false
        },
        {
            "var": "testo",
            "label": "Testo",
            "type": "mediumText",
            "multilang": true,
            "mandatory": true
        },
        {
            "var": "mirror",
            "label": "Specchia modulo",
            "type": "boolean",
            "multilang": false,
            "mandatory": true
        }
    ]
}