{
    "nome": "Ecommerce - TreeMenu Sinistra Pagina prodotti Marchio",
    "duplicabile": false,
    "backEnd": {
        "class": "Webtek\\EcommerceBundle\\DataFormatter\\BrandFormatter",
        "method": "getBrandInController"
    },
    "config": [],
    "author": "gabricom"
}