{
    "codice": "HTB.1.0.0",
    "release": "1.0",
    "releaseDate": "2017-02-24",
    "nome": "Header con testo in fondo e sfondo (homepage Cantina Menegola)",
    "descrizione": "Header con testo",
    "author": "Nicola Saccucci",
    "assets": {
        "css": [
            "/node_modules/aos/dist/aos.css"
        ],
        "js": [
            "/node_modules/aos/dist/aos.js"
        ]
    }

}
