{
    "codice": "BDLD.1.0.0",
    "release": "1.0",
    "releaseDate": "2017-02-17",
    "nome": "Box Doppio Logo Doppio",
    "duplicabile": true,
    "descrizione": "Box Doppio con logo e testo per ciascuna colonna",
    "author": "Matteo",
    "backEnd": {
        "class": "",
        "method": ""
    },
    "assets": {
        "css": [
            "/node_modules/aos/dist/aos.css"
        ],
        "js": [
            "/node_modules/aos/dist/aos.js"
        ]
    },
    "config": [
        {
            "var": "bg_color_sx",
            "label": "Colore di Sfondo SX",
            "type": "simpleText",
            "default": "",
            "multilang": false,
            "mandatory": true
        },
        {
            "var": "bg_color_dx",
            "label": "Colore di Sfondo DX",
            "type": "simpleText",
            "default": "",
            "multilang": false,
            "mandatory": true
        },
        {
            "var": "logo1",
            "label": "Logo SX",
            "type": "image",
            "types": [
                "jpg",
                "png",
                "gif",
                "jpeg"
            ],
            "dimensioni": "200x110",
            "mandatory": true,
            "multilang": false
        },
        {
            "var": "logo2",
            "label": "Logo DX",
            "type": "image",
            "types": [
                "jpg",
                "png",
                "gif",
                "jpeg"
            ],
            "dimensioni": "200x110",
            "mandatory": true,
            "multilang": false
        },
        {
            "var": "testo1",
            "label": "Testo SX",
            "type": "mediumText",
            "default": "",
            "multilang": true,
            "mandatory": true
        },
        {
            "var": "testo1_color",
            "label": "Colore Testo SX",
            "type": "simpleText",
            "default": "",
            "multilang": false,
            "mandatory": true
        },
        {
            "var": "testo2",
            "label": "Testo DX",
            "type": "mediumText",
            "default": "",
            "multilang": true,
            "mandatory": true
        },
        {
            "var": "testo2_color",
            "label": "Colore Testo DX",
            "type": "simpleText",
            "default": "",
            "multilang": false,
            "mandatory": true
        }
    ]
}
