{
    "codice": "HDTLEI.1.0.0",
    "release": "1.0",
    "releaseDate": "2017-03-27",
    "descrizione": "Mostra un header con 2 testi ricchi, un possibile bottone e un'immagine di sfondo",
    "author": "Giovanni Lenoci"
}