{
    "nome": "Modulo Feedback singolo",
    "duplicabile": true,
    "backEnd": {
        "class": "AppBundle\\DataFormatter\\VetrinaFormatter",
        "method": "getSlide"
    },
    "config": [
        {
            "var": "id_slide",
            "label": "Nome Slide",
            "type": "simpleText",
            "multilang": false,
            "mandatory": true
        }
    ]
}
