{
    "nome": "Ecommerce Grazie",
    "duplicabile": true,
    "backEnd": {
        "class": "\\Webtek\\EcommerceBundle\\DataFormatter\\OrderFormatter",
        "method": "getData"
    },
    "config": [
        {
            "var": "title",
            "label": "Titolo",
            "type": "simpleText",
            "default": "Abbiamo ricevuto il tuo ordine",
            "multilang": true,
            "mandatory": false
        },
        {
            "var": "messaggio",
            "label": "Messaggio",
            "type": "mediumText",
            "default": "Grazie per aver scelto Ghebagas !",
            "multilang": true,
            "mandatory": false
        }
    ]
}