{
    "codice": "SLIDERADAPTIVE.1.0.0",
    "release": "1.0",
    "releaseDate": "2017-06-18",
    "descrizione": "Slider adattativo full-width creato per ghebagas",
    "author": "gabricom",
    "assets": {
        "css": [
            "/node_modules/slick-carousel/slick/slick.css",
            "/node_modules/slick-carousel/slick/slick-theme.css"
        ],
        "js": [
            "/node_modules/slick-carousel/slick/slick.min.js"
        ]
    }
}