{
    "nome": "Box sezione testo Flottante e separatore",
    "duplicabile": true,
    "backEnd": {
        "class": null,
        "method": ""
    },
    "config": [
        {
            "type": "simpleText",
            "multilang": true,
            "var": "titolo",
            "label": "Titolo",
            "mandatory": true,
            "help": "",
            "default": "Inserisci Titolo"
        },
        {
            "type": "mediumText",
            "multilang": true,
            "var": "testo",
            "label": "testo",
            "mandatory": true,
            "help": "",
            "default": "Inserisci Testo"
        },
        {
            "type": "link",
            "multilang": false,
            "var": "link",
            "label": "Link Bottone",
            "mandatory": false,
            "help": "",
            "default": "Scopri di più"
        },
        {
            "type": "image",
            "multilang": false,
            "var": "image",
            "label": "Immagine di Sfondo",
            "mandatory": true,
            "help": "",
            "default": "",
            "types": [
                "jpg",
                "png",
                "gif",
                "jpeg"
            ],
            "dimensioni": "1920x1080"
        },
        {
            "type": "image",
            "multilang": false,
            "var": "icona",
            "label": "Logo-Icona",
            "mandatory": true,
            "help": "",
            "default": "",
            "types": [
                "jpg",
                "png",
                "gif",
                "jpeg"
            ],
            "dimensioni": "250x100"
        }
    ]
}
