{
    "codice": "BD.3.0.0",
    "release": "1.0",
    "releaseDate": "2017-02-14",
    "nome": "Box Doppio",
    "duplicabile": true,
    "descrizione": "Box con un immagine su un lato, dall'altra titoletto, titolo e testo",
    "author": "Matteo",
    "backEnd": {
        "class": "",
        "method": ""
    },
    "assets": {
        "css": [
            "/node_modules/aos/dist/aos.css"
        ],
        "js": [
            "/public/lib/modernizr-custom.js",
            "/public/lib/objectfit-correction.js",
            "/node_modules/aos/dist/aos.js"
        ]
    },
    "config": [
        {
            "var": "id_sezione",
            "label": "Id sezione",
            "type": "simpleText",
            "default": "",
            "multilang": true,
            "mandatory": false
        },
        {
            "var": "bg_color",
            "label": "Colore di Sfondo",
            "type": "simpleText",
            "default": "",
            "multilang": false,
            "mandatory": true
        },
        {
            "var": "titoletto",
            "label": "Titoletto",
            "type": "simpleText",
            "default": "",
            "multilang": true,
            "mandatory": false
        },
        {
            "var": "titolo",
            "label": "Titolo",
            "type": "mediumText",
            "default": "",
            "multilang": true,
            "mandatory": true
        },
        {
            "var": "testo",
            "label": "Testo",
            "type": "mediumText",
            "default": "",
            "multilang": true,
            "mandatory": true
        },
        {
            "var": "immagine",
            "label": "Immagine",
            "type": "image",
            "types": [
                "jpg",
                "png",
                "gif",
                "jpeg"
            ],
            "dimensioni": "1200x1000",
            "mandatory": true,
            "multilang": false
        }
    ]
}
