{
    "nome": "",
    "duplicabile": true,
    "backEnd": {
        "class": "AppBundle\\DataFormatter\\BlogFormatter",
        "method": "getLastBlogPost"
    },
    "config": [
        {
            "var": "quante",
            "label": "Quante",
            "type": "simpleText",
            "default": "3",
            "multilang": false,
            "mandatory": true
        },
        {
            "var": "titolo",
            "label": "Titolo",
            "type": "simpleText",
            "default": "Titolo",
            "multilang": false,
            "mandatory": true
        }
    ]
}