{
    "nome": "Titolo e testo centrati (Gema System) + testo sinistra",
    "duplicabile": true,
    "config": [
        {
            "var": "titolo",
            "label": "Titolo",
            "type": "mediumText",
            "multilang": true,
            "mandatory": false
        },
        {
            "var": "testo",
            "label": "Testo Centrato",
            "type": "mediumText",
            "multilang": true,
            "mandatory": false
        },
        {
            "var": "testo_l",
            "label": "Testo Allineato a sinistra",
            "type": "mediumText",
            "default": "",
            "multilang": true,
            "mandatory": false
        },
        {
            "var": "h1",
            "label": "Tittolo in h1",
            "type": "boolean",
            "multilang": false,
            "mandatory": false
        }
    ]
}
