{
    "nome": "Ecommerce  - Elenco Brand disponibili sul sito",
    "duplicabile": true,
    "backEnd": {
        "class": "Webtek\\EcommerceBundle\\DataFormatter\\BrandFormatter",
        "method": "getData"
    },
    "config": [
        {
            "var": "limit",
            "label": "Limite",
            "type": "simpleText",
            "default": "",
            "multilang": false,
            "mandatory": false
        },
        {
            "var": "titolo",
            "label": "Titolo",
            "type": "mediumText",
            "default": "",
            "multilang": true,
            "mandatory": false
        },
        {
            "var": "link",
            "label": "Link",
            "type": "link",
            "default": "",
            "multilang": true,
            "mandatory": false
        }
    ],
    "author": "gabricom"
}