{
    "nome": "Box Doppio Opinioni Clienti",
    "duplicabile": true,
    "backEnd": {
        "class": "AppBundle\\DataFormatter\\VetrinaFormatter",
        "method": "getData"
    },
    "config": [
        {
            "type": "simpleText",
            "multilang": false,
            "var": "category",
            "label": "Nome o id Categoria",
            "mandatory": true,
            "help": "",
            "default": "default"
        },
        {
            "type": "image",
            "multilang": false,
            "var": "image",
            "label": "Immagine box",
            "mandatory": true,
            "help": "",
            "default": "",
            "types": [
                "jpg",
                "png",
                "gif",
                "jpeg"
            ],
            "dimensioni": "300x200"
        }
    ]
}