{
    "codice": "BTELIIB.1.0.0",
    "release": "1.0",
    "releaseDate": "2017-03-28",
    "descrizione": "Permette di inserire un titolo e un testo facoltativi, posizionati al centro (interlinea elevata), e successivamente un logo o un icona (anch'essa facoltativa)",
    "author": "Matteo Tognolini"
}