{
    "codice": "T4CIMG.1.0.0",
    "release": "1.0",
    "releaseDate": "2017-02-12",
    "nome": "Testo, quattro colonne e immagine di presentazione",
    "duplicabile": true,
    "author": "gabricom",
    "descrizione": "Testo, quattro colonne e immagine di presentazione",
    "backEnd": {
        "class": "",
        "method": ""
    },
    "assets": {
        "css": [
            "/node_modules/aos/dist/aos.css"
        ],
        "js": [
            "/node_modules/aos/dist/aos.js"
        ]
    },
    "config": [
        {
            "var": "titolo",
            "label": "Titolo",
            "type": "simpleText",
            "default": "",
            "multilang": true,
            "mandatory": true
        },
        {
            "var": "sottotitolo",
            "label": "Sottotitolo",
            "type": "mediumText",
            "default": "",
            "multilang": true,
            "mandatory": true
        },
        {
            "var": "testo",
            "label": "Testo",
            "type": "mediumText",
            "default": "",
            "multilang": true,
            "mandatory": true
        },
        {
            "var": "column1_title",
            "label": "Titolo prima colonna",
            "type": "simpleText",
            "default": "",
            "multilang": true,
            "mandatory": true
        },
        {
            "var": "column1_text",
            "label": "Testo prima colonna",
            "type": "mediumText",
            "default": "",
            "multilang": true,
            "mandatory": true
        },
        {
            "var": "column1_icon",
            "label": "Icona",
            "type": "image",
            "types": [
                "jpg",
                "png",
                "gif",
                "jpeg"
            ],
            "dimensioni": "45x45",
            "mandatory": true,
            "multilang": false
        },
        {
            "var": "column2_title",
            "label": "Titolo seconda colonna",
            "type": "simpleText",
            "default": "",
            "multilang": true,
            "mandatory": true
        },
        {
            "var": "column2_text",
            "label": "Testo seconda colonna",
            "type": "mediumText",
            "default": "",
            "multilang": true,
            "mandatory": true
        },
        {
            "var": "column2_icon",
            "label": "Icona",
            "type": "image",
            "types": [
                "jpg",
                "png",
                "gif",
                "jpeg"
            ],
            "dimensioni": "45x45",
            "mandatory": true,
            "multilang": false
        },
        {
            "var": "column3_title",
            "label": "Titolo terza colonna",
            "type": "simpleText",
            "default": "",
            "multilang": true,
            "mandatory": true
        },
        {
            "var": "column3_text",
            "label": "Testo terza colonna",
            "type": "mediumText",
            "default": "",
            "multilang": true,
            "mandatory": true
        },
        {
            "var": "column3_icon",
            "label": "Icona",
            "type": "image",
            "types": [
                "jpg",
                "png",
                "gif",
                "jpeg"
            ],
            "dimensioni": "45x45",
            "mandatory": true,
            "multilang": false
        },
        {
            "var": "column4_title",
            "label": "Titolo quarta colonna",
            "type": "simpleText",
            "default": "",
            "multilang": true,
            "mandatory": true
        },
        {
            "var": "column4_text",
            "label": "Testo quarta colonna",
            "type": "mediumText",
            "default": "",
            "multilang": true,
            "mandatory": true
        },
        {
            "var": "column4_icon",
            "label": "Icona",
            "type": "image",
            "types": [
                "jpg",
                "png",
                "gif",
                "jpeg"
            ],
            "dimensioni": "45x45",
            "mandatory": true,
            "multilang": false
        },
        {
            "var": "immagine",
            "label": "Immagine grande in fondo",
            "type": "image",
            "types": [
                "jpg",
                "png",
                "gif",
                "jpeg"
            ],
            "dimensioni": "807x591",
            "mandatory": true,
            "multilang": false
        }
    ]
}
