{
    "codice": "PE.1.0.0",
    "release": "1.0",
    "author": "Vkfan",
    "releaseDate": "2017-07-21",
    "duplicabile": false,
    "descrizione": "Modulo stadard pagina errore",
    "assets": {
        "css": [
        ],
        "js": [
        ]
    }
}