{
    "codice": "HSWL.1.0.0",
    "release": "1.0",
    "author": "Gabriele 'gabricom' Colombera",
    "releaseDate": "2017-05-24",
    "duplicabile": true,
    "descrizione": "Slider di presentazione con 3 link con immagine di sfondo",
    "assets": {
        "css": [
            "/node_modules/slick-carousel/slick/slick.css",
            "/node_modules/slick-carousel/slick/slick-theme.css"
        ],
        "js": [
            "/node_modules/slick-carousel/slick/slick.min.js",
            "/node_modules/object-fit-images/dist/ofi.min.js",
            "/node_modules/jquery-match-height/dist/jquery.matchHeight-min.js"
        ]
    }
}