{
    "nome": "Box Doppio con Bottone",
    "duplicabile": true,
    "backEnd": {
        "class": null,
        "method": ""
    },
    "config": [
        {
            "type": "simpleText",
            "multilang": true,
            "var": "titolo",
            "label": "Titolo",
            "mandatory": false,
            "help": "",
            "default": ""
        },
        {
            "type": "mediumText",
            "multilang": true,
            "var": "testo",
            "label": "Testo",
            "mandatory": false,
            "help": "",
            "default": ""
        },
        {
            "type": "link",
            "multilang": true,
            "var": "link",
            "label": "Link",
            "mandatory": false,
            "help": "",
            "default": ""
        },
        {
            "type": "image",
            "multilang": false,
            "var": "image",
            "label": "Immagine",
            "mandatory": false,
            "help": "",
            "default": "",
            "types": [
                "jpg",
                "png",
                "gif",
                "jpeg"
            ],
            "dimensioni": "300x200"
        }
    ]
}