{
    "codice": "M.5.0.0",
    "release": "1.0",
    "releaseDate": "2017-03-23",
    "duplicabile": true,
    "descrizione": "Modulo per l'estrazione del menu a partire da un livello di appartenenza"
}