{
    "nome": "Blog Header",
    "duplicabile": true,
    "backEnd": {
        "class": "AppBundle\\DataFormatter\\BlogFormatter",
        "method": "getEvidenza"
    },
    "config": [
        {
            "var": "num_categorie",
            "label": "Numero di categorie",
            "type": "simpleText",
            "default": "4",
            "multilang": false,
            "mandatory": true
        }
    ]
}