{
    "codice": "CONTATTISINGLE.1.0.0",
    "release": "1.0",
    "releaseDate": "2017-03-28",
    "nome": "Contatti su singolo blocco",
    "descrizione": "Possibilità di inserire titolo, indirizzo, telefono, cellulare, fax e due indirizzi email",
    "author": "Gabriele 'gabricom' Colombera",
    "assets": {
        "css": [
            "/node_modules/aos/dist/aos.css"
        ],
        "js": [
            "/node_modules/aos/dist/aos.js"
        ]
    }
}
