{
    "nome": "News più lette",
    "duplicabile": true,
    "backEnd": {
        "class": "AppBundle\\DataFormatter\\BlogFormatter",
        "method": "getPiuLette"
    },
    "config": [
        {
            "var": "titolo",
            "label": "Titolo",
            "type": "simpleText",
            "default": "Notizie più lette",
            "multilang": true,
            "mandatory": true
        },
        {
            "var": "quante",
            "label": "Numero da estrarre",
            "type": "simpleText",
            "default": "3",
            "multilang": false,
            "mandatory": true
        }
    ]
}