{
    "nome": "Selettore lingue",
    "duplicabile": true,
    "backEnd": {
        "class": "AppBundle\\DataFormatter\\LanguageFormatter",
        "method": "getData"
    },
    "config": [
        {
            "var": "mostraLinguaAttiva",
            "label": "Mostrare lingua attiva",
            "type": "boolean",
            "default": "1",
            "multilang": false,
            "mandatory": true
        }
    ]
}