{
    "nome": "Doppio box Doppio",
    "duplicabile": true,
    "backEnd": {
        "class": "",
        "method": ""
    },
    "config": [
        {
            "var": "titoloGenerale",
            "label": "Titolo Principale",
            "type": "simpleText",
            "default": "",
            "multilang": true,
            "mandatory": false
        },
        {
            "var": "immagineSfondo",
            "label": "Sfondo",
            "type": "backgroundImage",
            "dimensioni": "1200x400",
            "types": [
                "png",
                "jpg",
                "gif",
                "jpeg"
            ],
            "multilang": false,
            "mandatory": false
        },
        {
            "var": "immagine_box_1",
            "label": "Immagine box 1",
            "type": "image",
            "dimensioni": "500x333",
            "types": [
                "png",
                "jpg",
                "gif",
                "jpeg"
            ],
            "multilang": false,
            "mandatory": false
        },
        {
            "var": "immagine_box_2",
            "label": "Immagine box 2",
            "type": "image",
            "dimensioni": "500x333",
            "types": [
                "png",
                "jpg",
                "gif",
                "jpeg"
            ],
            "multilang": false,
            "mandatory": false
        },
        {
            "var": "titoloBox1",
            "label": "Titolo Box 1",
            "type": "simpleText",
            "default": "",
            "multilang": true,
            "mandatory": false
        },
        {
            "var": "sottotitoloBox1",
            "label": "Sotto titolo Box 1",
            "type": "simpleText",
            "default": "",
            "multilang": true,
            "mandatory": false
        },
        {
            "var": "link_box_1",
            "label": "Link Box 1",
            "type": "link",
            "default": "",
            "multilang": false,
            "mandatory": true
        },
        {
            "var": "testoBox1",
            "label": "Testo Box 1",
            "type": "mediumText",
            "default": "",
            "multilang": true,
            "mandatory": false
        },
        {
            "var": "titoloBox2",
            "label": "Titolo Box 2",
            "type": "simpleText",
            "default": "",
            "multilang": true,
            "mandatory": false
        },
        {
            "var": "sottotitoloBox2",
            "label": "Sotto titolo Box 2",
            "type": "simpleText",
            "default": "",
            "multilang": true,
            "mandatory": false
        },
        {
            "var": "link_box_2",
            "label": "Link Box 2",
            "type": "link",
            "default": "",
            "multilang": false,
            "mandatory": true
        },
        {
            "var": "testoBox2",
            "label": "Testo Box 2",
            "type": "mediumText",
            "default": "",
            "multilang": true,
            "mandatory": false
        }
    ]
}