{
    "codice": "SM.1.0.0",
    "release": "1.0",
    "releaseDate": "2017-03-23",
    "descrizione": "Mostra 4 blocchi con un contatore a numeri.",
    "author": "Giovanni Lenoci",
    "assets": {
        "js": [
            "/node_modules/waypoints/lib/jquery.waypoints.min.js",
            "/node_modules/odometer/odometer.min.js"
        ],
        "css": [
            "/node_modules/odometer/themes/odometer-theme-minimal.css"
        ]
    }
}