{
    "codice": "BCom.1.0.0",
    "release": "1.0",
    "releaseDate": "2017-03-03",
    "descrizione": "Modulo per l'estrazione e creazione di commenti",
    "author": "Giovanni Lenoci",
    "assets": {
        "js": [
            "/node_modules/jquery-form/dist/jquery.form.min.js"
        ]
    }
}