{
    "author": "Gabriele 'gabricom' Colombera",
    "nome": "Separatore grafico",
    "duplicabile": true,
    "config": [
        {
            "var": "img",
            "label": "Immagine",
            "type": "image",
            "multilang": false,
            "mandatory": true,
            "dimensioni": "1920x416",
            "types": [
                "png",
                "jpg",
                "gif",
                "jpeg"
            ]
        }
    ]
}