{
    "codice": "LOGHI.2.0.0",
    "release": "1.0",
    "releaseDate": "2017-03-24",
    "descrizione": "Modulo che permette di caricare uno slider di loghi formattato su due righe",
    "duplicabile": true,
    "assets": {
        "css": [
            "/node_modules/slick-carousel/slick/slick.css",
            "/node_modules/slick-carousel/slick/slick-theme.css"
        ],
        "js": [
            "/node_modules/slick-carousel/slick/slick.min.js"
        ]
    }
}
