<?xml version="1.0" standalone="no"?>
<!DOCTYPE svg PUBLIC "-//W3C//DTD SVG 1.1//EN" "http://www.w3.org/Graphics/SVG/1.1/DTD/svg11.dtd">
<svg xmlns="http://www.w3.org/2000/svg">
    <metadata>Copyright (C) 2017 by original authors @ fontello.com</metadata>
    <defs>
        <font id="fontello" horiz-adv-x="1000">
            <font-face font-family="fontello" font-weight="400" font-stretch="normal" units-per-em="1000" ascent="850"
                       descent="-150"/>
            <missing-glyph horiz-adv-x="1000"/>
            <glyph glyph-name="logo_webtek" unicode="&#xe804;"
                   d="M601 343l29 99 166-88-184 457c-36 9-73 14-111 14-262 0-473-213-473-474 0-69 15-135 42-195l450-84 30 98-272 335 323-162z m-510-229c81-142 234-239 410-239 35 0 70 4 103 11l-513 228z m510 229l-51-171 188-233c87 51 156 130 197 224l-334 180z m370-33c1 14 1 26 1 39 0 208-132 384-317 449l316-488z"
                   horiz-adv-x="1000"/>

            <glyph glyph-name="1" unicode="&#xe806;"
                   d="M98 597c-34 0-61-27-61-61l0-372c0-34 27-61 61-61l812 0c33 0 61 27 61 61l0 372c0 34-28 61-61 61l-812 0z m-2331-1503c-34 0-61-27-61-61l0-374c0-34 27-62 61-62l149 0c34 0 61 28 61 62l0 374c0 34-27 61-61 61l-149 0z m330 0c-34 0-62-27-62-61l0-374c0-34 28-62 62-62l148 0c34 0 62 28 62 62l0 374c0 34-28 61-62 61l-148 0z m334 0c-34 0-61-27-61-61l0-374c0-34 27-62 61-62l149 0c34 0 61 28 61 62l0 374c0 34-27 61-61 61l-149 0z"
                   horiz-adv-x="1008"/>

            <glyph glyph-name="1-1" unicode="&#xe807;"
                   d="M100 598c-34 0-61-27-61-61l0-374c0-34 27-61 61-61l320 0c34 0 61 27 61 61l0 374c0 34-27 61-61 61l-320 0z m488 0c-34 0-61-27-61-61l0-374c0-34 27-61 61-61l320 0c34 0 61 27 61 61l0 374c0 34-27 61-61 61l-320 0z"
                   horiz-adv-x="1008"/>

            <glyph glyph-name="1-2-slot" unicode="&#xe808;"
                   d="M247 598c34 0 61-27 61-61l0-374c0-34-27-61-61-61l-149 0c-34 0-61 27-61 61l0 374c0 34 27 61 61 61l149 0z m677 0c26 0 48-21 48-48l0-400c0-27-22-48-48-48l-507 0c-27 0-48 21-48 48l0 400c0 27 21 48 48 48l507 0z"
                   horiz-adv-x="1008"/>

            <glyph glyph-name="2-1-slot" unicode="&#xe809;"
                   d="M762 598c-34 0-62-27-62-61l0-374c0-34 28-61 62-61l148 0c34 0 62 27 62 61l0 374c0 34-28 61-62 61l-148 0z m-678 0c-26 0-47-21-47-48l0-400c0-27 21-48 47-48l508 0c26 0 47 21 47 48l0 400c0 27-21 48-47 48l-508 0z"
                   horiz-adv-x="1008"/>

            <glyph glyph-name="3-slot" unicode="&#xe80a;"
                   d="M98 598c-34 0-62-27-62-61l0-374c0-34 28-61 62-61l148 0c34 0 62 27 62 61l0 374c0 34-28 61-62 61l-148 0z m329 0c-34 0-61-27-61-61l0-374c0-34 27-61 61-61l149 0c34 0 61 27 61 61l0 374c0 34-27 61-61 61l-149 0z m335 0c-34 0-62-27-62-61l0-374c0-34 28-61 62-61l148 0c34 0 62 27 62 61l0 374c0 34-28 61-62 61l-148 0z"
                   horiz-adv-x="1008"/>
        </font>
    </defs>
</svg>