{
    "nome": "Modulo header con sfondo e testo in fondo per sito web Cantina Menegola",
    "duplicabile": true,
    "config": [
        {
            "var": "title",
            "label": "Titolo",
            "type": "mediumText",
            "default": "",
            "multilang": true,
            "mandatory": true
        },
        {
            "var": "subtitle",
            "label": "Sottotitolo",
            "type": "simpleText",
            "default": "",
            "multilang": true,
            "mandatory": true
        },
        {
            "var": "img",
            "label": "Immagine",
            "type": "backgroundImage",
            "dimensioni": "1920x1080",
            "types": [
                "jpg",
                "png",
                "gif",
                "jpeg"
            ],
            "multilang": false,
            "mandatory": false
        },
        {
            "var": "id_sezione",
            "label": "Id sezione sottostante (mettere #)",
            "type": "link",
            "default": "",
            "multilang": false,
            "mandatory": true
        }
    ]
}
