{
    "codice": "PAGWEBTEK.1.0.0",
    "release": "1.0",
    "releaseDate": "2017-05-25",
    "descrizione": "Modulo con slider a schermo intero di sfondo e box testo per pagina webtek, attinge dagli allegati e dalle righe della pagina",
    "assets": {
        "css": [
            "/node_modules/slick-carousel/slick/slick.css",
            "/node_modules/slick-carousel/slick/slick-theme.css"
        ],
        "js": [
            "/node_modules/slick-carousel/slick/slick.min.js"
        ]
    }
}
