{
    "nome": "Ecommerce - Ricerca Avanzata",
    "duplicabile": true,
    "backEnd": {
        "class": "Webtek\\EcommerceBundle\\DataFormatter\\SearchFormatter",
        "method": "getMarchiAndCategorie"
    },
    "config": [],
    "author": "gabricom"
}