{
    "codice": "ECFILTERORD.1.0.0",
    "release": "1.0",
    "releaseDate": "2017-06-09",
    "descrizione": "Modulo per la gestione degli ordinamenti , da usare solo in congiunzione dei moduli che lo prevedono",
    "author": "giovanni",
    "assets": {
        "css": [
        ],
        "js": [
            "/public/lib/getParams/getParams.js"
        ]
    }
}