{
    "nome": "Slider",
    "duplicabile": true,
    "config": [
        {
            "var": "freccia_dx",
            "label": "Freccia destra",
            "type": "image",
            "dimensioni": "9x16",
            "types": [
                "png",
                "jpg",
                "gif",
                "jpeg"
            ],
            "multilang": false,
            "mandatory": false
        },
        {
            "var": "freccia_sx",
            "label": "Freccia sinistra",
            "type": "image",
            "dimensioni": "9x16",
            "types": [
                "png",
                "jpg",
                "gif",
                "jpeg"
            ],
            "multilang": false,
            "mandatory": false
        },
        {
            "var": "slide1",
            "label": "Slide 1",
            "type": "image",
            "types": [
                "jpg",
                "png",
                "gif",
                "jpeg"
            ],
            "dimensioni": "650x410",
            "mandatory": true,
            "multilang": false,
            "group": "immagini_slider"
        },
        {
            "var": "slide2",
            "label": "Slide 2",
            "type": "image",
            "types": [
                "jpg",
                "png",
                "gif",
                "jpeg"
            ],
            "dimensioni": "650x410",
            "mandatory": true,
            "multilang": false,
            "group": "immagini_slider"
        },
        {
            "var": "slide3",
            "label": "Slide 3",
            "type": "image",
            "types": [
                "jpg",
                "png",
                "gif",
                "jpeg"
            ],
            "dimensioni": "650x410",
            "mandatory": true,
            "multilang": false,
            "group": "immagini_slider"
        },
        {
            "var": "slide4",
            "label": "Slide 4",
            "type": "image",
            "types": [
                "jpg",
                "png",
                "gif",
                "jpeg"
            ],
            "dimensioni": "650x410",
            "mandatory": true,
            "multilang": false,
            "group": "immagini_slider"
        },
        {
            "var": "slide5",
            "label": "Slide 5",
            "type": "image",
            "types": [
                "jpg",
                "png",
                "gif",
                "jpeg"
            ],
            "dimensioni": "650x410",
            "mandatory": false,
            "multilang": false,
            "group": "immagini_slider"
        },
        {
            "var": "slide6",
            "label": "Slide 6",
            "type": "image",
            "types": [
                "jpg",
                "png",
                "gif",
                "jpeg"
            ],
            "dimensioni": "650x410",
            "mandatory": false,
            "multilang": false,
            "group": "immagini_slider"
        },
        {
            "var": "slide7",
            "label": "Slide 7",
            "type": "image",
            "types": [
                "jpg",
                "png",
                "gif",
                "jpeg"
            ],
            "dimensioni": "650x410",
            "mandatory": false,
            "multilang": false,
            "group": "immagini_slider"
        },
        {
            "var": "slide8",
            "label": "Slide 8",
            "type": "image",
            "types": [
                "jpg",
                "png",
                "gif",
                "jpeg"
            ],
            "dimensioni": "650x410",
            "mandatory": false,
            "multilang": false,
            "group": "immagini_slider"
        }
    ]
}
