{
    "codice": "BC.4.0.0",
    "release": "1.0",
    "releaseDate": "2017-02-28",
    "descrizione": "Modulo per la generazione del breadcrumb, stile di gema system",
    "author": "Giovanni Lenoci"
}