{
    "nome": "Test immagini",
    "duplicabile": true,
    "backEnd": {
        "class": null,
        "method": ""
    },
    "config": [
        {
            "var": "id_sezione",
            "label": "Id sezione",
            "type": "simpleText",
            "default": "",
            "multilang": true,
            "mandatory": false
        },
        {
            "type": "image",
            "multilang": false,
            "var": "img1",
            "label": "Immagine 1",
            "mandatory": false,
            "help": "",
            "default": "",
            "types": [
                "jpg",
                "png",
                "gif",
                "jpeg"
            ],
            "dimensioni": "300x200"
        },
        {
            "type": "image",
            "multilang": true,
            "var": "immagine1ml",
            "label": "Immagine 1 MultiLingua",
            "mandatory": false,
            "help": "",
            "default": "",
            "types": [
                "jpg",
                "png",
                "gif",
                "jpeg"
            ],
            "dimensioni": "300x200"
        },
        {
            "type": "file",
            "multilang": false,
            "var": "file1",
            "label": "File 1",
            "mandatory": false,
            "help": "",
            "types": [
                "pdf"
            ],
            "default": ""
        },
        {
            "type": "file",
            "multilang": true,
            "var": "file1ml",
            "label": "File 1 multilingua",
            "mandatory": false,
            "help": "",
            "types": [
                "pdf"
            ],
            "default": ""
        },
        {
            "type": "backgroundImage",
            "multilang": false,
            "var": "bgimg1",
            "label": "Bg Img 1",
            "mandatory": false,
            "help": "",
            "default": "",
            "types": [
                "jpg",
                "png",
                "gif",
                "jpeg"
            ],
            "dimensioni": "300x200"
        },
        {
            "type": "backgroundImage",
            "multilang": true,
            "var": "bgimg1ml",
            "label": "Bg Img 1 Ml",
            "mandatory": false,
            "help": "",
            "default": "",
            "types": [
                "jpg",
                "png",
                "gif",
                "jpeg"
            ],
            "dimensioni": "300x200"
        }
    ]
}