{
    "codice": "BDO.2.0.0",
    "release": "1.0",
    "releaseDate": "2017-03-18",
    "descrizione": "Box Doppio con richiamo a offerte, versione con testo e immagini invertite",
    "author": "Giovanni Lenoci",
    "assets": {
        "css": [
        ],
        "js": [
            "/node_modules/jquery-match-height/dist/jquery.matchHeight-min.js",
            "/public/lib/modernizr-custom.js",
            "/public/lib/objectfit-correction.js"
        ]
    }
}