{
    "codice": "TTIBB.1.0.0",
    "release": "1.0",
    "releaseDate": "2017-02-14",
    "nome": "Testo con Immagine Grande",
    "duplicabile": true,
    "descrizione": "Testo in alto e immagine grande di presentazione sotto al testo",
    "author": "Matteo",
    "backEnd": {
        "class": "",
        "method": ""
    },
    "assets": {
        "css": [
            "/node_modules/aos/dist/aos.css"
        ],
        "js": [
            "/node_modules/aos/dist/aos.js"
        ]
    },
    "config": [
        {
            "var": "titoletto",
            "label": "Titoletto",
            "type": "simpleText",
            "default": "",
            "multilang": true,
            "mandatory": true
        },
        {
            "var": "titolo",
            "label": "Titolo",
            "type": "simpleText",
            "default": "",
            "multilang": true,
            "mandatory": true
        },
        {
            "var": "testo",
            "label": "Testo",
            "type": "mediumText",
            "default": "",
            "multilang": true,
            "mandatory": true
        },
        {
            "var": "immagine_big",
            "label": "Immagine",
            "type": "image",
            "types": [
                "jpg",
                "png",
                "gif",
                "jpeg"
            ],
            "dimensioni": "1300x600",
            "mandatory": true,
            "multilang": false
        }
    ]
}
