{
    "codice": "PNP.1.0.0",
    "release": "1.0",
    "releaseDate": "2017-03-30",
    "descrizione": "Estrae la pagina precedente e successiva, mostra i link e i meta relativi a next e prev",
    "author": "Giovanni Lenoci"
}