{
    "codice": "PC.2.0.0",
    "release": "1.0",
    "releaseDate": "2017-03-30",
    "descrizione": "Mostra un elenco di pagine figlie della pagina in navigazione",
    "author": "Giovanni Lenoci",
    "assets": {
        "js": [
            "/node_modules/jquery-match-height/dist/jquery.matchHeight-min.js"
        ],
        "css": []
    }
}