{
    "codice": "BDN.3.0.0",
    "release": "3.0",
    "releaseDate": "2017-05-09",
    "descrizione": "Box doppio, immagine DX e testo SX con icona in sottofondo in full width",
    "author": "JD",
    "assets": {
        "css": [
            "/node_modules/aos/dist/aos.css"
        ],
        "js": [
            "/node_modules/jquery-match-height/dist/jquery.matchHeight-min.js",
            "/node_modules/aos/dist/aos.js",
            "/public/lib/modernizr-custom.js",
            "/public/lib/objectfit-correction.js"
        ]
    }
}
