{
    "codice": "PL.1.0.0",
    "release": "1.0",
    "releaseDate": "2017-03-29",
    "descrizione": "Estrae un numero limitato di pagine a partire o da una pagina genitore o dalla pagina in visualizzazione",
    "author": "Giovanni Lenoci",
    "assets": {
        "js": [
            "/node_modules/jquery-match-height/dist/jquery.matchHeight-min.js"
        ],
        "css": []
    }
}