{
    "nome": "Header con testo e link di collegamento alla sezione successiva",
    "duplicabile": true,
    "config": [
        {
            "var": "testo",
            "label": "Testo",
            "type": "mediumText",
            "multilang": true,
            "mandatory": true
        },
        {
            "var": "titoletto",
            "label": "Titoletto",
            "type": "simpleText",
            "multilang": true,
            "mandatory": true
        },
        {
            "var": "link",
            "label": "Id sezione sottostante",
            "type": "link",
            "multilang": false,
            "mandatory": true
        }

    ]
}
