{
    "codice": "BDN.2.0.0",
    "release": "2.0",
    "releaseDate": "2017-05-04",
    "descrizione": "Box doppio. Immagine Quadrata a DX e Testo con icona in sottofondo a SX all'interno di container (dimensione ridotta)",
    "author": "JD",
    "assets": {
        "css": [
            "/node_modules/aos/dist/aos.css"
        ],
        "js": [
            "/node_modules/jquery-match-height/dist/jquery.matchHeight-min.js",
            "/node_modules/aos/dist/aos.js",
            "/public/lib/modernizr-custom.js",
            "/public/lib/objectfit-correction.js"
        ]
    }
}
