{
    "codice": "LF.1.0.0",
    "release": "1.0",
    "releaseDate": "2017-03-31",
    "descrizione": "Link collegamento con freccia",
    "author": "Gabriele Colombera",
    "css": [
        "/node_modules/aos/dist/aos.css"
    ],
    "js": [
        "/node_modules/aos/dist/aos.js"
    ]
}
