{
    "author": "Gabriele 'gabricom' Colombera",
    "nome": "Footer poweredBy Webtek",
    "duplicabile": true,
    "config": [
        {
            "var": "poweredBy",
            "label": "Link Powered By",
            "default": "Powered by Webtek SPA",
            "type": "link",
            "multilang": false,
            "mandatory": true
        },
        {
            "var": "link_destra",
            "label": "Link Destra",
            "default": "Informativa sulla privacy e utilizzo cookie",
            "type": "link",
            "multilang": true,
            "mandatory": true
        }

    ]
}