{
    "codice": "QIG.1.0.0",
    "release": "1.0",
    "releaseDate": "2017-03-23",
    "descrizione": "Mostra un blocco con immagine grande e 4 blocchi a riquadri + piccoli con titolo e link",
    "author": "Giovanni Lenoci",
    "assets": {
        "css": [
            "/node_modules/aos/dist/aos.css"
        ],
        "js": [
            "/node_modules/aos/dist/aos.js",
            "/node_modules/jquery-match-height/dist/jquery.matchHeight-min.js",
            "/public/lib/modernizr-custom.js"
        ]
    }
}