{
    "codice": "TTI.2.0.0",
    "release": "1.0",
    "releaseDate": "2017-03-30",
    "descrizione": "Blocco immagine con etichetta e testo ricco. (Orig. Reesolve learning)",
    "author": "Giovanni Lenoci"
}