{
    "nome": "Slider Centrato",
    "duplicabile": true,
    "backEnd": {
        "class": "AppBundle\\DataFormatter\\VetrinaFormatter",
        "method": "getData"
    },
    "config": [
        {
            "var": "category",
            "label": "Nome Categoria",
            "type": "simpleText",
            "default": "default",
            "multilang": false,
            "mandatory": true
        },
        {
            "var": "freccia_dx",
            "label": "Freccia destra",
            "type": "image",
            "dimensioni": "9x16",
            "types": [
                "png",
                "jpg",
                "gif",
                "jpeg"
            ],
            "multilang": false,
            "mandatory": true
        },
        {
            "var": "freccia_sx",
            "label": "Freccia sinistra",
            "type": "image",
            "dimensioni": "9x16",
            "types": [
                "png",
                "jpg",
                "gif",
                "jpeg"
            ],
            "multilang": false,
            "mandatory": true
        }
    ]
}
