{
    "author": "Gabriele 'gabricom' Colombera",
    "nome": "Slider due blocchi , testo e titolo a destra , possibilità di aprire le foto fullscreen",
    "duplicabile": true,
    "backEnd": {
        "class": "AppBundle\\DataFormatter\\VetrinaFormatter",
        "method": "getData"
    },
    "config": [
        {
            "var": "category",
            "label": "Categoria",
            "type": "simpleText",
            "default": "default",
            "multilang": false,
            "mandatory": true
        },
        {
            "var": "titolo",
            "label": "Titolo",
            "type": "simpleText",
            "multilang": true,
            "mandatory": true
        },
        {
            "var": "testo",
            "label": "Testo",
            "type": "mediumText",
            "multilang": true,
            "mandatory": true
        },
        {
            "var": "img_separatore",
            "label": "Immagine separazione",
            "type": "image",
            "dimensioni": "33x47",
            "types": [
                "png",
                "jpg",
                "gif",
                "jpeg"
            ],
            "multilang": false,
            "mandatory": false
        },
        {
            "var": "freccia_dx",
            "label": "Freccia destra",
            "type": "image",
            "dimensioni": "9x16",
            "types": [
                "png",
                "jpg",
                "gif",
                "jpeg"
            ],
            "multilang": false,
            "mandatory": true
        },
        {
            "var": "freccia_sx",
            "label": "Freccia sinistra",
            "type": "image",
            "dimensioni": "9x16",
            "types": [
                "png",
                "jpg",
                "gif",
                "jpeg"
            ],
            "multilang": false,
            "mandatory": true
        },
        {
            "var": "img_lente",
            "label": "Immagine lente",
            "type": "image",
            "dimensioni": "33x47",
            "types": [
                "png",
                "jpg",
                "gif",
                "jpeg"
            ],
            "multilang": false,
            "mandatory": false
        },
        {
            "var": "mirror",
            "label": "Specchia modulo",
            "default": false,
            "type": "boolean",
            "multilang": false,
            "mandatory": true
        }

    ]
}