{
    "nome": "boxTesto pagina Webtek",
    "duplicabile": true,
    "backEnd": {
        "class": null,
        "method": ""
    },
    "config": [
        {
            "type": "simpleText",
            "multilang": true,
            "var": "titolo",
            "label": "Titolo",
            "mandatory": true,
            "help": "",
            "default": "Inserisci Titolo"
        },
        {
            "type": "mediumText",
            "multilang": true,
            "var": "testo",
            "label": "Testo",
            "mandatory": true,
            "help": "",
            "default": "Inserisci Testo"
        },
        {
            "type": "link",
            "multilang": true,
            "var": "link",
            "label": "Link",
            "mandatory": true,
            "help": "",
            "default": "Inserisci Link"
        }
    ]
}
