{
    "nome": "Immagine centrata responsive",
    "duplicabile": true,
    "config": [
        {
            "var": "img",
            "label": "Immagine",
            "type": "image",
            "dimensioni": "500x500",
            "types": [
                "jpg",
                "png",
                "gif",
                "jpeg"
            ],
            "multilang": true,
            "mandatory": false
        },
        {
            "var": "link",
            "label": "Link",
            "type": "link",
            "default": "",
            "multilang": false,
            "mandatory": false
        }
    ]
}