{
    "codice": "PR.2.0.0",
    "release": "1.0",
    "releaseDate": "2017-03-28",
    "duplicabile": true,
    "descrizione": "Modulo per l'estrazione delle righe di una pagina sul lato pubblico",
    "author": "Giovanni"
}