{
    "nome": "Titolo + 3 immagini sotto affiancate , realizzato per Pedranzini",
    "duplicabile": true,
    "backEnd": {
    },
    "config": [
        {
            "var": "titolo",
            "label": "Titolo",
            "type": "mediumText",
            "default": "",
            "multilang": true,
            "mandatory": true
        },
        {
            "var": "link1",
            "label": "Link 1",
            "type": "link",
            "default": "",
            "multilang": true,
            "mandatory": true
        },
        {
            "var": "link2",
            "label": "Link 2",
            "type": "link",
            "default": "",
            "multilang": true,
            "mandatory": true
        },
        {
            "var": "link3",
            "label": "Link 3",
            "type": "link",
            "default": "",
            "multilang": true,
            "mandatory": true
        },
        {
            "var": "bg_img",
            "label": "Immagine sfondo",
            "type": "image",
            "dimensioni": "1920x300",
            "types": [
                "png",
                "jpg",
                "gif",
                "jpeg"
            ],
            "multilang": false,
            "mandatory": false
        },
        {
            "var": "img1",
            "label": "Immagine 1",
            "type": "image",
            "dimensioni": "300x200",
            "types": [
                "png",
                "jpg",
                "gif",
                "jpeg"
            ],
            "multilang": false,
            "mandatory": true
        },
        {
            "var": "img2",
            "label": "Immagine 2",
            "type": "image",
            "dimensioni": "300x200",
            "types": [
                "png",
                "jpg",
                "gif",
                "jpeg"
            ],
            "multilang": false,
            "mandatory": true
        },
        {
            "var": "img3",
            "label": "Immagine 3",
            "type": "image",
            "dimensioni": "300x200",
            "types": [
                "png",
                "jpg",
                "gif",
                "jpeg"
            ],
            "multilang": false,
            "mandatory": true
        }
    ]
}
