{
    "codice": "2COFT.1.0.0",
    "release": "1.0",
    "author": "Gabriele 'gabricom' Colombera",
    "releaseDate": "2017-05-25",
    "duplicabile": true,
    "descrizione": "PROVA",
    "assets": {
        "css": [
        ],
        "js": [
        ]
    }
}