{
    "nome": "Quadrati in griglia (1+4)",
    "duplicabile": true,
    "backEnd": {
        "class": null,
        "method": ""
    },
    "config": [
        {
            "type": "mediumText",
            "multilang": true,
            "var": "titoloBoxGrande",
            "label": "Titolo box grande",
            "mandatory": true,
            "help": "",
            "default": "",
            "group": "titoli"
        },
        {
            "type": "mediumText",
            "multilang": true,
            "var": "testobox1",
            "label": "Testo box 1",
            "mandatory": false,
            "help": "",
            "default": "",
            "group": "titoli"
        },
        {
            "type": "mediumText",
            "multilang": true,
            "var": "testobox2",
            "label": "Testo box 2",
            "mandatory": false,
            "help": "",
            "default": "",
            "group": "titoli"
        },
        {
            "type": "mediumText",
            "multilang": true,
            "var": "testobox3",
            "label": "Testo box 3",
            "mandatory": false,
            "help": "",
            "default": "",
            "group": "titoli"
        },
        {
            "type": "mediumText",
            "multilang": true,
            "var": "testobox4",
            "label": "Testo box 4",
            "mandatory": false,
            "help": "",
            "default": "",
            "group": "titoli"
        },
        {
            "type": "link",
            "multilang": true,
            "var": "link1",
            "label": "Link box 1",
            "mandatory": false,
            "help": "",
            "default": "",
            "group": "links"
        },
        {
            "type": "link",
            "multilang": true,
            "var": "link2",
            "label": "Link box 2",
            "mandatory": false,
            "help": "",
            "default": "",
            "group": "links"
        },
        {
            "type": "link",
            "multilang": true,
            "var": "link3",
            "label": "Link box 3",
            "mandatory": false,
            "help": "",
            "default": "",
            "group": "links"
        },
        {
            "type": "link",
            "multilang": true,
            "var": "link4",
            "label": "Link box 4",
            "mandatory": false,
            "help": "",
            "default": "",
            "group": "links"
        },
        {
            "type": "image",
            "multilang": false,
            "var": "bigImage",
            "label": "Immagine grande",
            "mandatory": true,
            "help": "",
            "default": "",
            "types": [
                "jpg",
                "png",
                "gif",
                "jpeg"
            ],
            "dimensioni": "300x200"
        },
        {
            "type": "image",
            "multilang": false,
            "var": "immagine1",
            "label": "Immagine 1",
            "mandatory": true,
            "help": "",
            "default": "",
            "group": "images",
            "types": [
                "jpg",
                "png",
                "gif",
                "jpeg"
            ],
            "dimensioni": "300x200"
        },
        {
            "type": "image",
            "multilang": false,
            "var": "immagine2",
            "label": "Immagine 2",
            "mandatory": true,
            "help": "",
            "default": "",
            "group": "images",
            "types": [
                "jpg",
                "png",
                "gif",
                "jpeg"
            ],
            "dimensioni": "300x200"
        },
        {
            "type": "image",
            "multilang": false,
            "var": "immagine3",
            "label": "Immagine 3",
            "mandatory": true,
            "help": "",
            "default": "",
            "group": "images",
            "types": [
                "jpg",
                "png",
                "gif",
                "jpeg"
            ],
            "dimensioni": "300x200"
        },
        {
            "type": "image",
            "multilang": false,
            "var": "immagine4",
            "label": "Immagine 4",
            "mandatory": true,
            "help": "",
            "default": "",
            "group": "images",
            "types": [
                "jpg",
                "png",
                "gif",
                "jpeg"
            ],
            "dimensioni": "300x200"
        }
    ]
}