{
    "codice": "TI.3.0.0",
    "release": "1.0",
    "descrizione": "Icona con testo sottostante, realizzato per elmaviaggi, prevede anche uno zoom con AOS",
    "releaseDate": "2017-02-24",
    "author": "Giovanni Lenoci",
    "duplicabile": true
}
