{
    "codice": "SL.3.0.0",
    "release": "1.0",
    "releaseDate": "2017-02-08",
    "descrizione": "Modulo per mostrare l'elenco delle lingue per il sito in navigazione con bandierine",
    "assets": {
        "css": [
            "/public/lib/bootstrap_dropdowns_enhancement-master/dist/css/dropdowns-enhancement.min.css"
        ],
        "js": [
            "/public/lib/bootstrap_dropdowns_enhancement-master/dist/js/dropdowns-enhancement.js"
        ]
    }
}