{
    "codice": "OTTL.1.0.0",
    "release": "1.0",
    "releaseDate": "2017-03-25",
    "nome": "Titolo, testo e link centrati)",
    "descrizione": "Titolo, testo e link centrati (Cantina Menegola)",
    "author": "Nicola Saccucci",
    "assets": {
        "css": [
            "/node_modules/aos/dist/aos.css"
        ],
        "js": [
            "/node_modules/aos/dist/aos.js"
        ]
    }
}
