{
    "codice": "BTBL.1.0.0",
    "release": "1.0",
    "releaseDate": "2017-03-28",
    "descrizione": "Permette di inserire un campo titolo, testo e bottone link con contenuto centrato e un'icona o un logo facoltativo",
    "author": "Matteo Tognolini"
}
