{
    "codice": "MENUACCLEFT.2.0.0",
    "release": "1.0",
    "releaseDate": "2017-06-18",
    "descrizione": "Menu' account version sexy desdy - menu' orizzontale posto sopra la pagina",
    "author": "gabricom",
    "requisiti": ""
}