{
    "codice": "H.1.0.0",
    "release": "1.0",
    "releaseDate": "2017-01-30",
    "descrizione": "Modulo per l'estrazione di un header a partire dai dati della pagina visitata",
    "duplicabile": true
}