{
    "nome": "Link Semplice",
    "duplicabile": true,
    "backEnd": {
        "class": "",
        "method": ""
    },
    "config": [
        {
            "var": "link",
            "label": "Link",
            "type": "link",
            "default": "",
            "multilang": false,
            "mandatory": true
        }
    ]
}