{
    "nome": "2 Blocchi con logo,testo,foto con possibilità di scegliere la posizione del logo (Cantina menegola - riconoscimenti)",
    "duplicabile": true,
    "config": [
        {
            "var": "logo",
            "label": "Logo",
            "type": "image",
            "types": [
                "jpg",
                "png",
                "gif",
                "jpeg"
            ],
            "dimensioni": "400x400",
            "multilang": false,
            "mandatory": false
        },
        {
            "var": "foto",
            "label": "Foto",
            "type": "image",
            "types": [
                "jpg",
                "png",
                "gif",
                "jpeg"
            ],
            "dimensioni": "nessuna",
            "multilang": false,
            "mandatory": false
        },
        {
            "var": "posizione",
            "label": "Specchia modulo",
            "type": "boolean",
            "default": false,
            "multilang": false,
            "mandatory": true
        },
        {
            "var": "titolo",
            "label": "Titolo",
            "type": "simpleText",
            "multilang": true,
            "mandatory": false
        },
        {
            "var": "sottotitolo",
            "label": "Sottotitolo",
            "type": "simpleText",
            "multilang": true,
            "mandatory": false
        },
        {
            "var": "testo",
            "label": "Testo",
            "type": "simpleText",
            "multilang": true,
            "mandatory": false
        },
        {
            "var": "riconoscimento",
            "label": "Riconoscimento ottenuto",
            "type": "simpleText",
            "multilang": true,
            "mandatory": false
        },
        {
            "var": "commento",
            "label": "Commento",
            "type": "simpleText",
            "multilang": true,
            "mandatory": false
        }
    ]
}
